agl\poste\ObjetPostal.class
agl\poste\ColisExpressInvalide.class
agl\poste\MainPoste.class
agl\poste\Recommandation.class
agl\poste\ColisExpress.class
agl\poste\Lettre.class
agl\poste\Colis.class
agl\poste\SacPostal.class
