C:\Users\ophel\eclipse-workspace\TP3_la_poste\src\test\java\agl\poste\TestColisExpress.java
C:\Users\ophel\eclipse-workspace\TP3_la_poste\src\test\java\agl\poste\TestSacPostaux.java
C:\Users\ophel\eclipse-workspace\TP3_la_poste\src\test\java\agl\poste\TestAffranchissment.java
C:\Users\ophel\eclipse-workspace\TP3_la_poste\src\test\java\agl\poste\TestRemboursement.java
C:\Users\ophel\eclipse-workspace\TP3_la_poste\src\test\java\agl\poste\TestToString.java
